mc20_13TeV:mc20_13TeV.364352.Sherpa_224_NNPDF30NNLO_Diphoton_myy_90_175.deriv.DAOD_PHYSLITE.e6452_s3681_r13167_p6266
mc20_13TeV:mc20_13TeV.364352.Sherpa_224_NNPDF30NNLO_Diphoton_myy_90_175.deriv.DAOD_PHYSLITE.e6452_s3681_r13144_p6266
mc20_13TeV:mc20_13TeV.364352.Sherpa_224_NNPDF30NNLO_Diphoton_myy_90_175.deriv.DAOD_PHYSLITE.e6452_s3681_r13145_p6266
