mc23_13p6TeV.701005.Sh_2214_lllvjj.deriv.DAOD_PHYSLITE.e8543_s4162_r14622_p6026
mc23_13p6TeV.701005.Sh_2214_lllvjj.deriv.DAOD_PHYSLITE.e8543_s4159_r14799_p5855
## previously use MGPyEG EW6, might the avove is wrong for our analysis
