#kLambda
mc20_13TeV.525362.MGPy8EG_ssWWhjj_llvvbbjj_EW8_LO_klp1.deriv.DAOD_PHYS.e8545_s3681_r13167_r13146_p6266
mc20_13TeV.525363.MGPy8EG_ssWWhjj_llvvbbjj_EW8_LO_klp2.deriv.DAOD_PHYS.e8545_s3681_r13167_r13146_p6266
mc20_13TeV.525364.MGPy8EG_ssWWhjj_llvvbbjj_EW8_LO_klp5.deriv.DAOD_PHYS.e8545_s3681_r13167_r13146_p6266
mc20_13TeV.525365.MGPy8EG_ssWWhjj_llvvbbjj_EW8_LO_klp10.deriv.DAOD_PHYS.e8545_s3681_r13167_r13146_p6266
mc20_13TeV.525366.MGPy8EG_ssWWhjj_llvvbbjj_EW8_LO_klm5.deriv.DAOD_PHYS.e8545_s3681_r13167_r13146_p6266
mc20_13TeV.525362.MGPy8EG_ssWWhjj_llvvbbjj_EW8_LO_klp1.deriv.DAOD_PHYS.e8545_s3681_r13144_r13146_p6266
mc20_13TeV.525363.MGPy8EG_ssWWhjj_llvvbbjj_EW8_LO_klp2.deriv.DAOD_PHYS.e8545_s3681_r13144_r13146_p6266
mc20_13TeV.525364.MGPy8EG_ssWWhjj_llvvbbjj_EW8_LO_klp5.deriv.DAOD_PHYS.e8545_s3681_r13144_r13146_p6266
mc20_13TeV.525365.MGPy8EG_ssWWhjj_llvvbbjj_EW8_LO_klp10.deriv.DAOD_PHYS.e8545_s3681_r13144_r13146_p6266
mc20_13TeV.525366.MGPy8EG_ssWWhjj_llvvbbjj_EW8_LO_klm5.deriv.DAOD_PHYS.e8545_s3681_r13144_r13146_p6266
mc20_13TeV.525362.MGPy8EG_ssWWhjj_llvvbbjj_EW8_LO_klp1.deriv.DAOD_PHYS.e8545_s3681_r13145_r13146_p6266
mc20_13TeV.525363.MGPy8EG_ssWWhjj_llvvbbjj_EW8_LO_klp2.deriv.DAOD_PHYS.e8545_s3681_r13145_r13146_p6266
mc20_13TeV.525364.MGPy8EG_ssWWhjj_llvvbbjj_EW8_LO_klp5.deriv.DAOD_PHYS.e8545_s3681_r13145_r13146_p6266
mc20_13TeV.525365.MGPy8EG_ssWWhjj_llvvbbjj_EW8_LO_klp10.deriv.DAOD_PHYS.e8545_s3681_r13145_r13146_p6266
mc20_13TeV.525366.MGPy8EG_ssWWhjj_llvvbbjj_EW8_LO_klm5.deriv.DAOD_PHYS.e8545_s3681_r13145_r13146_p6266
#k2V
mc20_13TeV.545778.MGPy8EG_ssWWhjj_llvvbbjj_EW8_LO_k2vm7.deriv.DAOD_PHYS.e8523_a907_r14859_p6266
mc20_13TeV.545779.MGPy8EG_ssWWhjj_llvvbbjj_EW8_LO_k2vm4.deriv.DAOD_PHYS.e8523_a907_r14859_p6266
mc20_13TeV.545780.MGPy8EG_ssWWhjj_llvvbbjj_EW8_LO_k2vm2.deriv.DAOD_PHYS.e8523_a907_r14859_p6266
mc20_13TeV.545781.MGPy8EG_ssWWhjj_llvvbbjj_EW8_LO_k2v0.deriv.DAOD_PHYS.e8523_a907_r14859_p6266
mc20_13TeV.545782.MGPy8EG_ssWWhjj_llvvbbjj_EW8_LO_k2vp2.deriv.DAOD_PHYS.e8523_a907_r14859_p6266
mc20_13TeV.545783.MGPy8EG_ssWWhjj_llvvbbjj_EW8_LO_k2vp4.deriv.DAOD_PHYS.e8523_a907_r14859_p6266
mc20_13TeV.545784.MGPy8EG_ssWWhjj_llvvbbjj_EW8_LO_k2vp6.deriv.DAOD_PHYS.e8523_a907_r14859_p6266
mc20_13TeV.545785.MGPy8EG_ssWWhjj_llvvbbjj_EW8_LO_k2vp8.deriv.DAOD_PHYS.e8523_a907_r14859_p6266
mc20_13TeV.545778.MGPy8EG_ssWWhjj_llvvbbjj_EW8_LO_k2vm7.deriv.DAOD_PHYS.e8523_a907_r14860_p6266
mc20_13TeV.545779.MGPy8EG_ssWWhjj_llvvbbjj_EW8_LO_k2vm4.deriv.DAOD_PHYS.e8523_a907_r14860_p6266
mc20_13TeV.545780.MGPy8EG_ssWWhjj_llvvbbjj_EW8_LO_k2vm2.deriv.DAOD_PHYS.e8523_a907_r14860_p6266
mc20_13TeV.545781.MGPy8EG_ssWWhjj_llvvbbjj_EW8_LO_k2v0.deriv.DAOD_PHYS.e8523_a907_r14860_p6266
mc20_13TeV.545782.MGPy8EG_ssWWhjj_llvvbbjj_EW8_LO_k2vp2.deriv.DAOD_PHYS.e8523_a907_r14860_p6266
mc20_13TeV.545783.MGPy8EG_ssWWhjj_llvvbbjj_EW8_LO_k2vp4.deriv.DAOD_PHYS.e8523_a907_r14860_p6266
mc20_13TeV.545784.MGPy8EG_ssWWhjj_llvvbbjj_EW8_LO_k2vp6.deriv.DAOD_PHYS.e8523_a907_r14860_p6266
mc20_13TeV.545785.MGPy8EG_ssWWhjj_llvvbbjj_EW8_LO_k2vp8.deriv.DAOD_PHYS.e8523_a907_r14860_p6266
mc20_13TeV.545778.MGPy8EG_ssWWhjj_llvvbbjj_EW8_LO_k2vm7.deriv.DAOD_PHYS.e8523_a907_r14861_p6266
mc20_13TeV.545779.MGPy8EG_ssWWhjj_llvvbbjj_EW8_LO_k2vm4.deriv.DAOD_PHYS.e8523_a907_r14861_p6266
mc20_13TeV.545780.MGPy8EG_ssWWhjj_llvvbbjj_EW8_LO_k2vm2.deriv.DAOD_PHYS.e8523_a907_r14861_p6266
mc20_13TeV.545781.MGPy8EG_ssWWhjj_llvvbbjj_EW8_LO_k2v0.deriv.DAOD_PHYS.e8523_a907_r14861_p6266
mc20_13TeV.545782.MGPy8EG_ssWWhjj_llvvbbjj_EW8_LO_k2vp2.deriv.DAOD_PHYS.e8523_a907_r14861_p6266
mc20_13TeV.545783.MGPy8EG_ssWWhjj_llvvbbjj_EW8_LO_k2vp4.deriv.DAOD_PHYS.e8523_a907_r14861_p6266
mc20_13TeV.545784.MGPy8EG_ssWWhjj_llvvbbjj_EW8_LO_k2vp6.deriv.DAOD_PHYS.e8523_a907_r14861_p6266
mc20_13TeV.545785.MGPy8EG_ssWWhjj_llvvbbjj_EW8_LO_k2vp8.deriv.DAOD_PHYS.e8523_a907_r14861_p6266